[
  {
    "definitions_word_en": "a large public green area in a town, used for recreation.",
    "id_lesson": "park_p",
    "definitions_ex_en": "a walk around the park",
    "definitions_ex_vn": "đi dạo quanh công viên",
    "definitions_type_word": "noun"
  },
  {
    "definitions_word_en": "an area devoted to a specified purpose.",
    "id_lesson": "park_p",
    "definitions_ex_en": "an industrial park",
    "definitions_ex_vn": "một khu công nghiệp",
    "definitions_type_word": "noun"
  },
  {
    "definitions_word_en": "(in a car with automatic transmission) the position of the gear selector in which the gears are locked, preventing the vehicle\u0027s movement.",
    "id_lesson": "park_p",
    "definitions_ex_en": "",
    "definitions_ex_vn": "",
    "definitions_type_word": "noun"
  },
  {
    "definitions_word_en": "bring (a vehicle that one is driving) to a halt and leave it temporarily, typically in a parking lot or by the side of the road.",
    "id_lesson": "park_p",
    "definitions_ex_en": "he parked his car outside her house",
    "definitions_ex_vn": "Anh đậu xe ra ngoài nhà cô.",
    "definitions_type_word": "verb"
  }
]