[
  {
    "definitions_word_en": "the amount or number of a material or immaterial thing not usually estimated by spatial measurement.",
    "id_lesson": "quantity_q",
    "definitions_ex_en": "the quantity and quality of the fruit can be controlled",
    "definitions_ex_vn": "Số lượng và chất lượng của trái cây có thể được kiểm soát",
    "definitions_type_word": "noun"
  },
  {
    "definitions_word_en": "the perceived length of a vowel sound or syllable.",
    "id_lesson": "quantity_q",
    "definitions_ex_en": "",
    "definitions_ex_vn": "",
    "definitions_type_word": "noun"
  },
  {
    "definitions_word_en": "a value or component that may be expressed in numbers.",
    "id_lesson": "quantity_q",
    "definitions_ex_en": "",
    "definitions_ex_vn": "",
    "definitions_type_word": "noun"
  }
]