[
  {
    "definitions_word_en": "a person employed in an office or bank to keep records, accounts, and undertake other routine administrative duties.",
    "id_lesson": "clerk_c",
    "definitions_ex_en": "the clerk inserted the bank\u0027s master key in the lower lock",
    "definitions_ex_vn": "Thư ký đã chèn khóa chủ của ngân hàng vào khóa dưới",
    "definitions_type_word": "noun"
  },
  {
    "definitions_word_en": "a member of the clergy.",
    "id_lesson": "clerk_c",
    "definitions_ex_en": "",
    "definitions_ex_vn": "",
    "definitions_type_word": "noun"
  }
]