[
  {
    "definitions_word_en": "pleasingly graceful and stylish in appearance or manner.",
    "id_lesson": "elegant_e",
    "definitions_ex_en": "she will look elegant in black",
    "definitions_ex_vn": "cô ấy sẽ trông thanh lịch trong màu đen",
    "definitions_type_word": "adjective"
  }
]