[
  {
    "definitions_word_en": "relating to the whole world; worldwide.",
    "id_lesson": "global_g",
    "definitions_ex_en": "the downturn in the global economy",
    "definitions_ex_vn": "sự suy thoái trong nền kinh tế toàn cầu",
    "definitions_type_word": "adjective"
  }
]