[
  {
    "definitions_word_en": "the front part of a person\u0027s head from the forehead to the chin, or the corresponding part in an animal.",
    "id_lesson": "face_f",
    "definitions_ex_en": "",
    "definitions_ex_vn": "",
    "definitions_type_word": "noun"
  },
  {
    "definitions_word_en": "the surface of a thing, especially one that is presented to the view or has a particular function.",
    "id_lesson": "face_f",
    "definitions_ex_en": "",
    "definitions_ex_vn": "",
    "definitions_type_word": "noun"
  },
  {
    "definitions_word_en": "be positioned with the face or front toward (someone or something).",
    "id_lesson": "face_f",
    "definitions_ex_en": "he turned to face her",
    "definitions_ex_vn": "Anh quay lại đối mặt với cô.",
    "definitions_type_word": "verb"
  },
  {
    "definitions_word_en": "confront and deal with or accept a difficult or unpleasant task, fact, or situation.",
    "id_lesson": "face_f",
    "definitions_ex_en": "honesty forced her to face facts",
    "definitions_ex_vn": "Sự trung thực buộc cô phải đối mặt với sự thật",
    "definitions_type_word": "verb"
  },
  {
    "definitions_word_en": "cover the surface of (something) with a layer of a different material.",
    "id_lesson": "face_f",
    "definitions_ex_en": "the external basement walls were faced with granite slabs",
    "definitions_ex_vn": "Các bức tường tầng hầm bên ngoài đã phải đối mặt với các tấm đá granit",
    "definitions_type_word": "verb"
  }
]