[
  {
    "definitions_word_en": "form (something) by putting parts together or combining substances; construct; create.",
    "id_lesson": "make_m",
    "definitions_ex_en": "my grandmother made a dress for me",
    "definitions_ex_vn": "Bà tôi làm một chiếc váy cho tôi",
    "definitions_type_word": "verb"
  },
  {
    "definitions_word_en": "cause (something) to exist or come about; bring about.",
    "id_lesson": "make_m",
    "definitions_ex_en": "the drips had made a pool on the floor",
    "definitions_ex_vn": "Những giọt nước nhỏ đã tạo ra một hồ bơi trên sàn nhà",
    "definitions_type_word": "verb"
  },
  {
    "definitions_word_en": "compel (someone) to do something.",
    "id_lesson": "make_m",
    "definitions_ex_en": "she bought me a brandy and made me drink it",
    "definitions_ex_vn": "Cô ấy đã mua cho tôi một brandy và khiến tôi uống nó",
    "definitions_type_word": "verb"
  },
  {
    "definitions_word_en": "constitute; amount to.",
    "id_lesson": "make_m",
    "definitions_ex_en": "they made an unusual duo",
    "definitions_ex_vn": "họ đã làm một bộ đôi bất thường",
    "definitions_type_word": "verb"
  },
  {
    "definitions_word_en": "gain or earn (money or profit).",
    "id_lesson": "make_m",
    "definitions_ex_en": "he\u0027d made a lot of money out of hardware",
    "definitions_ex_vn": "Anh ấy đã kiếm được rất nhiều tiền từ phần cứng",
    "definitions_type_word": "verb"
  },
  {
    "definitions_word_en": "arrive at (a place) within a specified time or in time for (a train or other transport).",
    "id_lesson": "make_m",
    "definitions_ex_en": "",
    "definitions_ex_vn": "",
    "definitions_type_word": "verb"
  },
  {
    "definitions_word_en": "go or prepare to go in a particular direction.",
    "id_lesson": "make_m",
    "definitions_ex_en": "he struggled to his feet and made toward the car",
    "definitions_ex_vn": "Anh ta vật lộn xuống chân anh ta và làm về phía xe",
    "definitions_type_word": "verb"
  },
  {
    "definitions_word_en": "(in bridge, whist, and similar games) win (a trick).",
    "id_lesson": "make_m",
    "definitions_ex_en": "",
    "definitions_ex_vn": "",
    "definitions_type_word": "verb"
  },
  {
    "definitions_word_en": "(of the tide) begin to flow or ebb.",
    "id_lesson": "make_m",
    "definitions_ex_en": "",
    "definitions_ex_vn": "",
    "definitions_type_word": "verb"
  },
  {
    "definitions_word_en": "the manufacturer or trade name of a particular product.",
    "id_lesson": "make_m",
    "definitions_ex_en": "the make, model, and year of his car",
    "definitions_ex_vn": "tạo nên, mô hình và năm xe của anh ấy",
    "definitions_type_word": "noun"
  },
  {
    "definitions_word_en": "the making of electrical contact.",
    "id_lesson": "make_m",
    "definitions_ex_en": "",
    "definitions_ex_vn": "",
    "definitions_type_word": "noun"
  }
]