[
  {
    "definitions_word_en": "a short distance away or apart in space or time.",
    "id_lesson": "close_c",
    "definitions_ex_en": "the hotel is close to the sea",
    "definitions_ex_vn": "Khách sạn nằm sát biển",
    "definitions_type_word": "adjective"
  },
  {
    "definitions_word_en": "denoting a family member who is part of a person\u0027s immediate family, typically a parent or sibling.",
    "id_lesson": "close_c",
    "definitions_ex_en": "the family history of cancer in close relatives",
    "definitions_ex_vn": "Lịch sử gia đình ung thư ở người thân gần gũi",
    "definitions_type_word": "adjective"
  },
  {
    "definitions_word_en": "(of observation, examination, etc.) done in a careful and thorough way.",
    "id_lesson": "close_c",
    "definitions_ex_en": "pay close attention to what your body is telling you about yourself",
    "definitions_ex_vn": "Hãy chú ý đến những gì cơ thể bạn đang nói với bạn về bản thân bạn",
    "definitions_type_word": "adjective"
  },
  {
    "definitions_word_en": "uncomfortably humid or airless.",
    "id_lesson": "close_c",
    "definitions_ex_en": "a close, hazy day",
    "definitions_ex_vn": "một ngày khuất phục, mơ hồ",
    "definitions_type_word": "adjective"
  },
  {
    "definitions_word_en": "another term for high (sense 7 of the adjective).",
    "id_lesson": "close_c",
    "definitions_ex_en": "",
    "definitions_ex_vn": "",
    "definitions_type_word": "adjective"
  },
  {
    "definitions_word_en": "in a position so as to be very near to someone or something; with very little space between.",
    "id_lesson": "close_c",
    "definitions_ex_en": "they stood close to the door",
    "definitions_ex_vn": "Họ đứng gần cửa",
    "definitions_type_word": "adverb"
  },
  {
    "definitions_word_en": "move or cause to move so as to cover an opening.",
    "id_lesson": "close_c",
    "definitions_ex_en": "she jumped into the train just as the doors were closing",
    "definitions_ex_vn": "Cô nhảy xuống tàu giống như cánh cửa đang đóng cửa",
    "definitions_type_word": "verb"
  },
  {
    "definitions_word_en": "bring or come to an end.",
    "id_lesson": "close_c",
    "definitions_ex_en": "the members were thanked for attending and the meeting was closed",
    "definitions_ex_vn": "Các thành viên được cảm ơn đã tham dự và cuộc họp đã bị đóng cửa",
    "definitions_type_word": "verb"
  },
  {
    "definitions_word_en": "(of a business, organization, or institution) cease to be in operation or accessible to the public, either permanently or at the end of a working day or other period of time.",
    "id_lesson": "close_c",
    "definitions_ex_en": "the factory is to close with the loss of 150 jobs",
    "definitions_ex_vn": "Nhà máy sắp kết thúc với khoản lỗ 150 việc làm",
    "definitions_type_word": "verb"
  },
  {
    "definitions_word_en": "gradually get nearer to someone or something.",
    "id_lesson": "close_c",
    "definitions_ex_en": "",
    "definitions_ex_vn": "",
    "definitions_type_word": "verb"
  },
  {
    "definitions_word_en": "the end of an event or of a period of time or activity.",
    "id_lesson": "close_c",
    "definitions_ex_en": "the afternoon drew to a close",
    "definitions_ex_vn": "Buổi chiều đã đến gần",
    "definitions_type_word": "noun"
  },
  {
    "definitions_word_en": "the shutting of something, especially a door.",
    "id_lesson": "close_c",
    "definitions_ex_en": "the door jerked to a close behind them",
    "definitions_ex_vn": "cánh cửa bị giật đến phía sau họ",
    "definitions_type_word": "noun"
  }
]