[
  {
    "definitions_word_en": "relating to music.",
    "id_lesson": "musical_m",
    "definitions_ex_en": "they shared similar musical tastes",
    "definitions_ex_vn": "Họ chia sẻ hương vị âm nhạc tương tự",
    "definitions_type_word": "adjective"
  },
  {
    "definitions_word_en": "having a pleasant sound; melodious or tuneful.",
    "id_lesson": "musical_m",
    "definitions_ex_en": "they burst out into rich, musical laughter",
    "definitions_ex_vn": "Họ nổ tung thành những tiếng cười giàu có, âm nhạc",
    "definitions_type_word": "adjective"
  },
  {
    "definitions_word_en": "a play or movie in which singing and dancing play an essential part. Musicals developed from light opera in the early 20th century.",
    "id_lesson": "musical_m",
    "definitions_ex_en": "a hit West End musical, Miss Saigon",
    "definitions_ex_vn": "Một hit West End Music, Miss Saigon",
    "definitions_type_word": "noun"
  }
]