[
  {
    "definitions_word_en": "the seed-bearing part of a plant, consisting of reproductive organs (stamens and carpels) that are typically surrounded by a brightly colored corolla (petals) and a green calyx (sepals).",
    "id_lesson": "flower_f",
    "definitions_ex_en": "",
    "definitions_ex_vn": "",
    "definitions_type_word": "noun"
  },
  {
    "definitions_word_en": "the finest individuals out of a number of people or things.",
    "id_lesson": "flower_f",
    "definitions_ex_en": "the flower of college track athletes",
    "definitions_ex_vn": "Hoa của các vận động viên theo dõi trường đại học",
    "definitions_type_word": "noun"
  },
  {
    "definitions_word_en": "(of a plant) produce flowers; bloom.",
    "id_lesson": "flower_f",
    "definitions_ex_en": "these daisies can flower as late as October",
    "definitions_ex_vn": "Những bông hoa cúc này có thể hoa vào cuối tháng 10",
    "definitions_type_word": "verb"
  },
  {
    "definitions_word_en": "be in or reach an optimum stage of development; develop fully and richly.",
    "id_lesson": "flower_f",
    "definitions_ex_en": "it is there that the theory of deconstruction has flowered most extravagantly",
    "definitions_ex_vn": "nó ở đó rằng lý thuyết về việc giải cấu đã nở hoa nhiều hơn",
    "definitions_type_word": "verb"
  }
]