[
  {
    "definitions_word_en": "a site for depositing garbage.",
    "id_lesson": "dump_d",
    "definitions_ex_en": "",
    "definitions_ex_vn": "",
    "definitions_type_word": "noun"
  },
  {
    "definitions_word_en": "an unpleasant or dreary place.",
    "id_lesson": "dump_d",
    "definitions_ex_en": "she says the town has become a dump",
    "definitions_ex_vn": "Cô nói rằng thị trấn đã trở thành một bãi rác",
    "definitions_type_word": "noun"
  },
  {
    "definitions_word_en": "a copying of stored data to a different location, performed typically as a protection against loss.",
    "id_lesson": "dump_d",
    "definitions_ex_en": "",
    "definitions_ex_vn": "",
    "definitions_type_word": "noun"
  },
  {
    "definitions_word_en": "deposit or dispose of (garbage, waste, or unwanted material), typically in a careless or hurried way.",
    "id_lesson": "dump_d",
    "definitions_ex_en": "trucks dumped 1,900 tons of refuse here",
    "definitions_ex_vn": "Xe tải đổ 1.900 tấn rác thải ra đây",
    "definitions_type_word": "verb"
  },
  {
    "definitions_word_en": "copy (stored data) to a different location, especially so as to protect against loss.",
    "id_lesson": "dump_d",
    "definitions_ex_en": "",
    "definitions_ex_vn": "",
    "definitions_type_word": "verb"
  },
  {
    "definitions_word_en": "tackle (a quarterback) before he can throw a pass.",
    "id_lesson": "dump_d",
    "definitions_ex_en": "",
    "definitions_ex_vn": "",
    "definitions_type_word": "verb"
  }
]