[
  {
    "definitions_word_en": "(especially of a system or machine) achieving maximum productivity with minimum wasted effort or expense.",
    "id_lesson": "efficient_e",
    "definitions_ex_en": "fluorescent lamps are efficient at converting electricity into light",
    "definitions_ex_vn": "Đèn huỳnh quang hiệu quả khi chuyển đổi điện thành ánh sáng",
    "definitions_type_word": "adjective"
  }
]